testbenches/testbench_ghdl_I2S/sim/test_bench_i2s.vcd
$date
  Tue Mar 15 10:08:17 2022
$end
$version
  GHDL v0
$end
$timescale
  1 fs
$end
$scope module standard $end
$upscope $end
$scope module std_logic_1164 $end
$upscope $end
$scope module textio $end
$upscope $end
$scope module std_logic_textio $end
$upscope $end
$scope module test_bench_i2s $end
$var reg 1 ! mclk $end
$var reg 1 " reset_n $end
$var reg 1 # start $end
$var reg 1 $ sclk $end
$var reg 1 % ws $end
$var reg 1 & sd_tx $end
$var reg 1 ' sd_rx $end
$var reg 1 ( ap_start $end
$var reg 1 ) ap_done $end
$var reg 1 * rdy $end
$var reg 24 + l_data_tx[23:0] $end
$var reg 24 , r_data_tx[23:0] $end
$var reg 24 - l_data_rx[23:0] $end
$var reg 24 . r_data_rx[23:0] $end
$var reg 24 / l_input_to_i2s[23:0] $end
$var reg 24 0 r_input_to_i2s[23:0] $end
$var reg 24 1 l_output_from_i2s[23:0] $end
$var reg 24 2 r_output_from_i2s[23:0] $end
$var reg 1 3 pair $end
$scope module i2s_transceiver_inst $end
$var reg 1 4 mclk $end
$var reg 1 5 reset_n $end
$var reg 1 6 start $end
$var reg 1 7 sclk $end
$var reg 1 8 ws $end
$var reg 1 9 sd_tx $end
$var reg 1 : sd_rx $end
$var reg 1 ; rdy $end
$var reg 24 < l_data_tx[23:0] $end
$var reg 24 = r_data_tx[23:0] $end
$var reg 24 > l_data_rx[23:0] $end
$var reg 24 ? r_data_rx[23:0] $end
$var reg 1 @ sclk_int $end
$var reg 1 A ws_int $end
$var reg 24 B l_data_rx_latched[23:0] $end
$var reg 24 C r_data_rx_lateched[23:0] $end
$var reg 24 D l_data_rx_int[23:0] $end
$var reg 24 E r_data_rx_int[23:0] $end
$var reg 24 F l_data_tx_int[23:0] $end
$var reg 24 G r_data_tx_int[23:0] $end
$upscope $end
$upscope $end
$enddefinitions $end
#0
0!
0"
0#
0$
0%
0&
0'
U(
0)
U*
b000000000000000000000000 +
b000000000000000000000000 ,
b000000000000000000000000 -
b000000000000000000000000 .
bUUUUUUUUUUUUUUUUUUUUUUUU /
bUUUUUUUUUUUUUUUUUUUUUUUU 0
bUUUUUUUUUUUUUUUUUUUUUUUU 1
bUUUUUUUUUUUUUUUUUUUUUUUU 2
03
04
05
06
07
08
09
0:
U;
b000000000000000000000000 <
b000000000000000000000000 =
b000000000000000000000000 >
b000000000000000000000000 ?
0@
0A
bUUUUUUUUUUUUUUUUUUUUUUUU B
bUUUUUUUUUUUUUUUUUUUUUUUU C
b000000000000000000000000 D
b000000000000000000000000 E
b000000000000000000000000 F
b000000000000000000000000 G
#20000000
1"
b000000000000000000000001 /
b000000000000000000000001 0
15
#40000000
X#
X6
#40690000
1!
1#
14
16
#81380000
0!
04
#122070000
1!
14
#162760000
0!
04
#203450000
1!
1$
0*
14
17
0;
1@
#244140000
0!
04
#284830000
1!
14
#325520000
0!
04
#366210000
1!
0$
14
07
0@
#406900000
0!
04
#447590000
1!
14
#488280000
0!
04
#528970000
1!
1$
14
17
1@
#569660000
0!
04
#610350000
1!
14
#651040000
0!
04
#691730000
1!
0$
14
07
0@
#732420000
0!
04
#773110000
1!
14
#813800000
0!
04
#854490000
1!
1$
14
17
1@
#895180000
0!
04
#935870000
1!
14
#976560000
0!
04
#1017250000
1!
0$
14
07
0@
#1057940000
0!
04
#1098630000
1!
14
#1139320000
0!
04
#1180010000
1!
1$
14
17
1@
#1220700000
0!
04
#1261390000
1!
14
#1302080000
0!
04
#1342770000
1!
0$
14
07
0@
#1383460000
0!
04
#1424150000
1!
14
#1464840000
0!
04
#1505530000
1!
1$
14
17
1@
#1546220000
0!
04
#1586910000
1!
14
#1627600000
0!
04
#1668290000
1!
0$
14
07
0@
#1708980000
0!
04
#1749670000
1!
14
#1790360000
0!
04
#1831050000
1!
1$
14
17
1@
#1871740000
0!
04
#1912430000
1!
14
#1953120000
0!
04
#1993810000
1!
0$
14
07
0@
#2034500000
0!
04
#2075190000
1!
14
#2115880000
0!
04
#2156570000
1!
1$
14
17
1@
#2197260000
0!
04
#2237950000
1!
14
#2278640000
0!
04
#2319330000
1!
0$
14
07
0@
#2360020000
0!
04
#2400710000
1!
14
#2441400000
0!
04
#2482090000
1!
1$
14
17
1@
#2522780000
0!
04
#2563470000
1!
14
#2604160000
0!
04
#2644850000
1!
0$
14
07
0@
#2685540000
0!
04
#2726230000
1!
14
#2766920000
0!
04
#2807610000
1!
1$
14
17
1@
#2848300000
0!
04
#2888990000
1!
14
#2929680000
0!
04
#2970370000
1!
0$
14
07
0@
#3011060000
0!
04
#3051750000
1!
14
#3092440000
0!
04
#3133130000
1!
1$
14
17
1@
#3173820000
0!
04
#3214510000
1!
14
#3255200000
0!
04
#3295890000
1!
0$
14
07
0@
#3336580000
0!
04
#3377270000
1!
14
#3417960000
0!
04
#3458650000
1!
1$
14
17
1@
#3499340000
0!
04
#3540030000
1!
14
#3580720000
0!
04
#3621410000
1!
0$
14
07
0@
#3662100000
0!
04
#3702790000
1!
14
#3743480000
0!
04
#3784170000
1!
1$
14
17
1@
#3824860000
0!
04
#3865550000
1!
14
#3906240000
0!
04
#3946930000
1!
0$
14
07
0@
#3987620000
0!
04
#4028310000
1!
14
#4069000000
0!
04
#4109690000
1!
1$
14
17
1@
#4150380000
0!
04
#4191070000
1!
14
#4231760000
0!
04
#4272450000
1!
0$
14
07
0@
#4313140000
0!
04
#4353830000
1!
14
#4394520000
0!
04
#4435210000
1!
1$
14
17
1@
#4475900000
0!
04
#4516590000
1!
14
#4557280000
0!
04
#4597970000
1!
0$
14
07
0@
#4638660000
0!
04
#4679350000
1!
14
#4720040000
0!
04
#4760730000
1!
1$
14
17
1@
#4801420000
0!
04
#4842110000
1!
14
#4882800000
0!
04
#4923490000
1!
0$
14
07
0@
#4964180000
0!
04
#5004870000
1!
14
#5045560000
0!
04
#5086250000
1!
1$
14
17
1@
#5126940000
0!
04
#5167630000
1!
14
#5208320000
0!
04
#5249010000
1!
0$
14
07
0@
#5289700000
0!
04
#5330390000
1!
14
#5371080000
0!
04
#5411770000
1!
1$
14
17
1@
#5452460000
0!
04
#5493150000
1!
14
#5533840000
0!
04
#5574530000
1!
0$
14
07
0@
#5615220000
0!
04
#5655910000
1!
14
#5696600000
0!
04
#5737290000
1!
1$
14
17
1@
#5777980000
0!
04
#5818670000
1!
14
#5859360000
0!
04
#5900050000
1!
0$
14
07
0@
#5940740000
0!
04
#5981430000
1!
14
#6022120000
0!
04
#6062810000
1!
1$
14
17
1@
#6103500000
0!
04
#6144190000
1!
14
#6184880000
0!
04
#6225570000
1!
0$
14
07
0@
#6266260000
0!
04
#6306950000
1!
14
#6347640000
0!
04
#6388330000
1!
1$
14
17
1@
#6429020000
0!
04
#6469710000
1!
14
#6510400000
0!
04
#6551090000
1!
0$
14
07
0@
#6591780000
0!
04
#6632470000
1!
14
#6673160000
0!
04
#6713850000
1!
1$
14
17
1@
#6754540000
0!
04
#6795230000
1!
14
#6835920000
0!
04
#6876610000
1!
0$
14
07
0@
#6917300000
0!
04
#6957990000
1!
14
#6998680000
0!
04
#7039370000
1!
1$
14
17
1@
#7080060000
0!
04
#7120750000
1!
14
#7161440000
0!
04
#7202130000
1!
0$
14
07
0@
#7242820000
0!
04
#7283510000
1!
14
#7324200000
0!
04
#7364890000
1!
1$
14
17
1@
#7405580000
0!
04
#7446270000
1!
14
#7486960000
0!
04
#7527650000
1!
0$
14
07
0@
#7568340000
0!
04
#7609030000
1!
14
#7649720000
0!
04
#7690410000
1!
1$
14
17
1@
#7731100000
0!
04
#7771790000
1!
14
#7812480000
0!
04
#7853170000
1!
0$
14
07
0@
#7893860000
0!
04
#7934550000
1!
14
#7975240000
0!
04
#8015930000
1!
1$
14
17
1@
#8056620000
0!
04
#8097310000
1!
14
#8138000000
0!
04
#8178690000
1!
0$
14
07
0@
#8219380000
0!
04
#8260070000
1!
14
#8300760000
0!
04
#8341450000
1!
1$
14
17
1@
#8382140000
0!
04
#8422830000
1!
14
#8463520000
0!
04
#8504210000
1!
0$
14
07
0@
#8544900000
0!
04
#8585590000
1!
14
#8626280000
0!
04
#8666970000
1!
1$
14
17
1@
#8707660000
0!
04
#8748350000
1!
14
#8789040000
0!
04
#8829730000
1!
0$
14
07
0@
#8870420000
0!
04
#8911110000
1!
14
#8951800000
0!
04
#8992490000
1!
1$
14
17
1@
#9033180000
0!
04
#9073870000
1!
14
#9114560000
0!
04
#9155250000
1!
0$
14
07
0@
#9195940000
0!
04
#9236630000
1!
14
#9277320000
0!
04
#9318010000
1!
1$
14
17
1@
#9358700000
0!
04
#9399390000
1!
14
#9440080000
0!
04
#9480770000
1!
0$
14
07
0@
#9521460000
0!
04
#9562150000
1!
14
#9602840000
0!
04
#9643530000
1!
1$
14
17
1@
#9684220000
0!
04
#9724910000
1!
14
#9765600000
0!
04
#9806290000
1!
0$
14
07
0@
#9846980000
0!
04
#9887670000
1!
14
#9928360000
0!
04
#9969050000
1!
1$
14
17
1@
#10009740000
0!
04
#10050430000
1!
14
#10091120000
0!
04
#10131810000
1!
0$
14
07
0@
#10172500000
0!
04
#10213190000
1!
14
#10253880000
0!
04
#10294570000
1!
1$
14
17
1@
#10335260000
0!
04
#10375950000
1!
14
#10416640000
0!
04
#10457330000
1!
0$
1%
1*
14
07
18
1;
0@
1A
#10498020000
0!
04
#10538710000
1!
b000000000000000000000000 1
b000000000000000000000000 2
14
#10579400000
0!
04
#10620090000
1!
1$
0*
14
17
0;
1@
